{
  "display": {
    "icon": {
      "item": "endrem:powered_core"
    },
    "title": {
      "translate": "advancements.main.root.title"
    },
    "description": {
      "translate": "advancements.main.root.description"
    },
    "frame": "task",
    "show_toast": false,
    "announce_to_chat": true,
    "hidden": false,
    "background": "endrem:textures/backgrounds/advance_back.png"
  },
  "criteria": {
    "old_pearl": {
      "trigger": "minecraft:inventory_changed",
      "conditions": {
        "items": [
          {
            "item": "endrem:old_pearl"
          }
        ]
      }
    },
    "rogue_pearl": {
      "trigger": "minecraft:inventory_changed",
      "conditions": {
        "items": [
          {
            "item": "endrem:rogue_pearl"
          }
        ]
      }
    },
    "nether_pearl": {
      "trigger": "minecraft:inventory_changed",
      "conditions": {
        "items": [
          {
            "item": "endrem:nether_pearl"
          }
        ]
      }
    },
    "cold_pearl": {
      "trigger": "minecraft:inventory_changed",
      "conditions": {
        "items": [
          {
            "item": "endrem:cold_pearl"
          }
        ]
      }
    },
    "corrupted_pearl": {
      "trigger": "minecraft:inventory_changed",
      "conditions": {
        "items": [
          {
            "item": "endrem:corrupted_pearl"
          }
        ]
      }
    },
    "magical_pearl": {
      "trigger": "minecraft:inventory_changed",
      "conditions": {
        "items": [
          {
            "item": "endrem:magical_pearl"
          }
        ]
      }
    },
    "black_pearl": {
      "trigger": "minecraft:inventory_changed",
      "conditions": {
        "items": [
          {
            "item": "endrem:black_pearl"
          }
        ]
      }
    },
    "lost_pearl": {
      "trigger": "minecraft:inventory_changed",
      "conditions": {
        "items": [
          {
            "item": "endrem:lost_pearl"
          }
        ]
      }
    },
    "wither_pearl": {
      "trigger": "minecraft:inventory_changed",
      "conditions": {
        "items": [
          {
            "item": "endrem:wither_pearl"
          }
        ]
      }
    },
    "end_crystal_pearl": {
      "trigger": "minecraft:inventory_changed",
      "conditions": {
        "items": [
          {
            "item": "endrem:end_crystal_pearl"
          }
        ]
      }
    },
    "guardian_pearl": {
      "trigger": "minecraft:inventory_changed",
      "conditions": {
        "items": [
          {
            "item": "endrem:guardian_pearl"
          }
        ]
      }
    }
  },
  "rewards": {
    "recipes": [
      "endrem:core", "endrem:powered_core"
    ]
  },
  "requirements": [
    [
      "old_pearl", "rogue_pearl", "nether_pearl", "cold_pearl", "corrupted_pearl", "magical_pearl", "black_pearl", "lost_pearl", "wither_pearl", "end_crystal_pearl", "guardian_pearl"
    ]
  ]
}