{
    "pools": [{
        "name": "eye_pool",
        "rolls": 2,
        "entries": [
            {
                "type": "item",
                "name": "endrem:cold_pearl",
                "weight": 1,
                "functions": [{ "function": "set_count", "count": 1 }]
            },
            {
                "type": "empty",
                "weight": 3
            }
        ]
    },
        {
            "name": "eye_pool2",
            "rolls": 1,
            "entries": [
                {
                    "type": "item",
                    "name": "endrem:cold_pearl",
                    "weight": 1,
                    "functions": [{ "function": "set_count", "count": 1 }]
                }
            ]
        }]
}