{
  "music.portal_open_sound": {
    "category": "music",
    "subtitle": "music.portal_open_sound.sub",
    "sounds": [
      {
        "name": "endrem:music/portal_open_sound",
        "stream": true
      }
    ]
  },
  "item.end_castle_disc": {
    "category": "item",
    "subtitle": "item.end_castle_disc.sub",
    "sounds": [
      {
        "name": "endrem:item/end_castle_disc",
        "stream": true
      }
    ]
  }
}